{
  "project_info": {
    "project_number": "690911041340",
    "project_id": "instagram-clone-ad263",
    "storage_bucket": "instagram-clone-ad263.appspot.com"
  },
  "client": [
    {
      "client_info": {
        "mobilesdk_app_id": "1:690911041340:android:6787807d34655a57cd3039",
        "android_client_info": {
          "package_name": "com.example.instagram"
        }
      },
      "oauth_client": [
        {
          "client_id": "690911041340-hl0thf96pl8oecfg6rjh6vkbs0q5ep82.apps.googleusercontent.com",
          "client_type": 3
        }
      ],
      "api_key": [
        {
          "current_key": "AIzaSyBPJKqhTS5Iz0ln-bBI_poPFazzezqT8d0"
        }
      ],
      "services": {
        "appinvite_service": {
          "other_platform_oauth_client": [
            {
              "client_id": "690911041340-hl0thf96pl8oecfg6rjh6vkbs0q5ep82.apps.googleusercontent.com",
              "client_type": 3
            }
          ]
        }
      }
    }
  ],
  "configuration_version": "1"
}